<svg width="70" height="55" viewBox="0 0 25 20" version="1.1" xmlns="http://www.w3.org/2000/svg"
     xmlns:xlink="http://www.w3.org/1999/xlink">
    <title>Path 4</title>
    <desc>Created using Figma</desc>
    <g id="Canvas" transform="translate(-160 -1076)">
        <g id="Path 4">
            <use xlink:href="#path0_stroke" transform="translate(162 1078)" fill="#EAEAEA"/>
        </g>
    </g>
    <defs>
        <path id="path0_stroke"
              d="M 6.44657 15L 5.37001 16.0445L 6.44657 17.1541L 7.52314 16.0445L 6.44657 15ZM -1.07656 9.40013L 5.37001 16.0445L 7.52314 13.9555L 1.07656 7.3111L -1.07656 9.40013ZM 7.52314 16.0445L 22.0766 1.04451L 19.9234 -1.04451L 5.37001 13.9555L 7.52314 16.0445Z"/>
    </defs>
</svg>

